<?xml version="1.0" encoding="UTF-8" standalone="no"?>
<!-- Created with Inkscape (http://www.inkscape.org/) -->

<svg
   xmlns:dc="http://purl.org/dc/elements/1.1/"
   xmlns:cc="http://creativecommons.org/ns#"
   xmlns:rdf="http://www.w3.org/1999/02/22-rdf-syntax-ns#"
   xmlns:svg="http://www.w3.org/2000/svg"
   xmlns="http://www.w3.org/2000/svg"
   xmlns:sodipodi="http://sodipodi.sourceforge.net/DTD/sodipodi-0.dtd"
   xmlns:inkscape="http://www.inkscape.org/namespaces/inkscape"
   width="100"
   height="47"
   viewBox="0 0 26.458332 12.435418"
   version="1.1"
   id="svg1137"
   inkscape:version="0.92.4 5da689c313, 2019-01-14"
   sodipodi:docname="toggle-close-arrow.svg"
   inkscape:export-filename="/home/iko/Downloads/toggle-down-arrow.png"
   inkscape:export-xdpi="96"
   inkscape:export-ydpi="96">
  <defs
     id="defs1131">
    <linearGradient
       id="linearGradient1718">
      <stop
         style="stop-color:#4ebf7a;stop-opacity:1;"
         offset="0"
         id="stop1716" />
    </linearGradient>
  </defs>
  <sodipodi:namedview
     id="base"
     pagecolor="#ffffff"
     bordercolor="#666666"
     borderopacity="1.0"
     inkscape:pageopacity="0.0"
     inkscape:pageshadow="2"
     inkscape:zoom="6.7369346"
     inkscape:cx="53.194176"
     inkscape:cy="25.614601"
     inkscape:document-units="px"
     inkscape:current-layer="g817"
     showgrid="false"
     units="px"
     inkscape:showpageshadow="false"
     borderlayer="true"
     inkscape:snap-bbox="true"
     inkscape:bbox-nodes="true"
     inkscape:snap-page="true"
     inkscape:snap-global="true"
     inkscape:snap-bbox-edge-midpoints="false"
     inkscape:window-width="1362"
     inkscape:window-height="724"
     inkscape:window-x="0"
     inkscape:window-y="42"
     inkscape:window-maximized="0" />
  <metadata
     id="metadata1134">
    <rdf:RDF>
      <cc:Work
         rdf:about="">
        <dc:format>image/svg+xml</dc:format>
        <dc:type
           rdf:resource="http://purl.org/dc/dcmitype/StillImage" />
        <dc:title></dc:title>
      </cc:Work>
    </rdf:RDF>
  </metadata>
  <g
     transform="translate(0,-284.56457)"
     id="g817"
     inkscape:groupmode="layer"
     inkscape:label="down">
    <path
       sodipodi:nodetypes="ccc"
       inkscape:connector-curvature="0"
       id="path815"
       d="m 2.371768,287.03423 10.8574,7.62142 10.857397,-7.62142"
       style="display:inline;opacity:1;fill:none;fill-opacity:1;stroke:#44a76b;stroke-width:4.68879271;stroke-linecap:round;stroke-linejoin:round;stroke-miterlimit:4;stroke-dasharray:none;stroke-dashoffset:0;stroke-opacity:1" />
  </g>
  <g
     inkscape:label="up"
     inkscape:groupmode="layer"
     id="layer1"
     transform="translate(0,-284.56457)"
     style="display:none">
    <path
       style="display:inline;opacity:1;fill:none;fill-opacity:1;stroke:#44a76b;stroke-width:4.68879271;stroke-linecap:round;stroke-linejoin:round;stroke-miterlimit:4;stroke-dasharray:none;stroke-dashoffset:0;stroke-opacity:1"
       d="m 2.371768,294.63631 10.8574,-7.62142 10.857397,7.62142"
       id="path1129"
       inkscape:connector-curvature="0"
       sodipodi:nodetypes="ccc" />
  </g>
</svg>
